cspp: A Package for The Correlates of State Policy Project Data
…
# Full dataset
all_data <- get_cspp_data()

## Note: the following variables have additional footnotes in the codebook (https://ippsr.msu.edu/sites/default/files/CorrelatesCodebook.pdf):
## bfh_cpi_multiplier, gov_fin_fy, housing_prices_quar, noofvotes, cartheftrate, carthefttotal, murderrate, murdertotal, propcrimerate, propcrimetotal, raperate, rapetotal, bus_energy_consum, bus_energy_consum_pc

Finding Variables

Given the large number of variables in the data, we provide additional functionality within get_var_info to search for variables based on strings or categories. For instance, the following searches for pop and femal within the variable name, returning 31 variables:

# Search for variables by name
get_var_info(var_names = c("pop","femal"))

## # A tibble: 31 x 12
##    variable years short_desc long_desc sources category plaintext_cite
##    <chr>    <chr> <chr>      <chr>     <chr>   <chr>    <chr>         
##  1 poptotal 1900… Populatio… Total po… "U.S. … demogra… <NA>          
##  2 popdens… 1975… Populatio… Number o… "http:… demogra… Ryu, Seung-Hy…
##  3 popfema… 1994… Female po… The numb… "CQ Pr… demogra… Morgan, K.O.L…
##  4 pctpopf… 2012… Female po… Percenta… "U.S. … demogra… Hamilton, Gre…
##  5 popmale  1994… Male popu… The numb… "CQ Pr… demogra… Morgan, K.O.L…
##  6 pctpopm… 2012… Male popu… Percenta… "U.S. … demogra… Hamilton, Gre…
##  7 popunde… 1994… Populatio… The numb… "CQ Pr… demogra… Morgan, K.O.L…
##  8 pctpopu… 2013… Populatio… Percenta… "U.S. … demogra… Hamilton, Gre…
##  9 pop5to17 1994… Populatio… The numb… "CQ Pr… demogra… Morgan, K.O.L…
## 10 pop18to… 1994… Populatio… The numb… "CQ Pr… demogra… Morgan, K.O.L…
## # … with 21 more rows, and 5 more variables: bibtex_cite <chr>,
## #   plaintext_cite2 <chr>, bibtex_cite2 <chr>, plaintext_cite3 <chr>,
## #   bibtex_cite3 <chr>

A similar line of code using the related_to parameter, instead of var_name, searches within the name and the description fields, returning 96 results:

# Search by name and description:
get_var_info(related_to = c("pop", "femal"))

## # A tibble: 96 x 12
##    variable years short_desc long_desc sources category plaintext_cite
##    <chr>    <chr> <chr>      <chr>     <chr>   <chr>    <chr>         
##  1 poptotal 1900… Populatio… Total po… "U.S. … demogra… <NA>          
##  2 popdens… 1975… Populatio… Number o… "http:… demogra… Ryu, Seung-Hy…
##  3 popfema… 1994… Female po… The numb… "CQ Pr… demogra… Morgan, K.O.L…
##  4 pctpopf… 2012… Female po… Percenta… "U.S. … demogra… Hamilton, Gre…
##  5 popmale  1994… Male popu… The numb… "CQ Pr… demogra… Morgan, K.O.L…
##  6 pctpopm… 2012… Male popu… Percenta… "U.S. … demogra… Hamilton, Gre…
##  7 popunde… 1994… Populatio… The numb… "CQ Pr… demogra… Morgan, K.O.L…
##  8 pctpopu… 2013… Populatio… Percenta… "U.S. … demogra… Hamilton, Gre…
##  9 pop5to17 1994… Populatio… The numb… "CQ Pr… demogra… Morgan, K.O.L…
## 10 pop18to… 1994… Populatio… The numb… "CQ Pr… demogra… Morgan, K.O.L…
## # … with 86 more rows, and 5 more variables: bibtex_cite <chr>,
## #   plaintext_cite2 <chr>, bibtex_cite2 <chr>, plaintext_cite3 <chr>,
## #   bibtex_cite3 <chr>
…
